Suite/Test/Step Name,Browser,Description,Tag,Start time,End time,Duration,Status
Login_Failed,Chrome 97.0.4692.99,,,2022-01-27 23:56:01,2022-01-27 23:56:14,13.741s,PASSED
,,,,,,,
Test Cases/Login/Login Failed,Chrome 97.0.4692.99,,,2022-01-27 23:56:01,2022-01-27 23:56:14,13.188s,PASSED
"openBrowser("""")",Chrome 97.0.4692.99,,,2022-01-27 23:56:02,2022-01-27 23:56:08,6.453s,PASSED
"navigateToUrl(""https://www.saucedemo.com/"")",Chrome 97.0.4692.99,,,2022-01-27 23:56:08,2022-01-27 23:56:10,1.892s,PASSED
"setText(findTestObject(""Login_Page/input_standard_userlocked_out_userproblem_u_db77ac""), ""wrong_user"")",Chrome 97.0.4692.99,,,2022-01-27 23:56:10,2022-01-27 23:56:11,1.175s,PASSED
"setEncryptedText(findTestObject(""Login_Page/input_standard_userlocked_out_userproblem_u_3423e9""), ""qcu24s4901FyWDTwXGr6XA=="")",Chrome 97.0.4692.99,,,2022-01-27 23:56:11,2022-01-27 23:56:12,0.789s,PASSED
"click(findTestObject(""Login_Page/input_standard_userlocked_out_userproblem_u_0dff71""))",Chrome 97.0.4692.99,,,2022-01-27 23:56:12,2022-01-27 23:56:13,0.581s,PASSED
"verifyElementPresent(findTestObject(""Login_Page/login_error_message""), 0)",Chrome 97.0.4692.99,,,2022-01-27 23:56:13,2022-01-27 23:56:13,0.483s,PASSED
"takeFullPageScreenshotAsCheckpoint(""Login Failed"", [])",Chrome 97.0.4692.99,,,2022-01-27 23:56:13,2022-01-27 23:56:14,1.266s,PASSED
